F:\L263\GIT\pwlnAp_workspace\my-web-app\my-tools\src\main\java\idv\td\validation\CustIdLengthValidator.java
F:\L263\GIT\pwlnAp_workspace\my-web-app\my-tools\src\main\java\idv\td\annotation\ListNotEmpty.java
F:\L263\GIT\pwlnAp_workspace\my-web-app\my-tools\src\main\java\idv\td\utility\ValidateUtil.java
F:\L263\GIT\pwlnAp_workspace\my-web-app\my-tools\src\main\java\idv\td\validation\ListNotEmptyValidator.java
F:\L263\GIT\pwlnAp_workspace\my-web-app\my-tools\src\main\java\idv\td\annotation\CustIdLength.java
F:\L263\GIT\pwlnAp_workspace\my-web-app\my-tools\src\main\java\idv\td\utility\JsonUtil.java
F:\L263\GIT\pwlnAp_workspace\my-web-app\my-tools\src\main\java\idv\td\utility\EnumUtil.java
